<?xml version="1.0" encoding="UTF-8"?>
<svg width="14px" height="11px" viewBox="0 0 14 11" version="1.1" xmlns="http://www.w3.org/2000/svg" xmlns:xlink="http://www.w3.org/1999/xlink">
    <!-- Generator: Sketch 44.1 (41455) - http://www.bohemiancoding.com/sketch -->
    <title>alert-triangle</title>
    <desc>Created with Sketch.</desc>
    <defs></defs>
    <g id="Symbols" stroke="none" stroke-width="1" fill="none" fill-rule="evenodd" stroke-linecap="round" stroke-linejoin="round">
        <g id="Content/Views/Homework" transform="translate(-237.000000, -34.000000)" stroke="#2D2D2D">
            <g id="Group">
                <g id="Pendientes-por-revisar" transform="translate(238.000000, 32.000000)">
                    <g id="alert-triangle" transform="translate(0.000000, 2.000000)">
                        <path d="M5.11741935,1.00406214 L0.438570665,8.81503267 C0.242269832,9.15498093 0.241097803,9.57356238 0.435491861,9.91460458 C0.629885919,10.2556468 0.990648304,10.4679256 1.38317884,10.47224 L10.7408762,10.47224 C11.1334068,10.4679256 11.4941691,10.2556468 11.6885632,9.91460458 C11.8829573,9.57356238 11.8817852,9.15498093 11.6854844,8.81503267 L7.0066357,1.00406214 C6.80635355,0.673880879 6.44820444,0.472239998 6.06202753,0.472239998 C5.67585062,0.472239998 5.31770151,0.673880879 5.11741935,1.00406214 Z" id="Shape" stroke-width="0.8"></path>
                        <path d="M6,4 L6,6.10526316" id="Shape"></path>
                        <path d="M6,8 L6,8" id="Shape"></path>
                    </g>
                </g>
            </g>
        </g>
    </g>
</svg>