<?xml version="1.0" encoding="UTF-8"?>
<svg width="13px" height="12px" viewBox="0 0 13 12" version="1.1" xmlns="http://www.w3.org/2000/svg" xmlns:xlink="http://www.w3.org/1999/xlink">
    <!-- Generator: Sketch 44.1 (41455) - http://www.bohemiancoding.com/sketch -->
    <title>edit</title>
    <desc>Created with Sketch.</desc>
    <defs></defs>
    <g id="Docente" stroke="none" stroke-width="1" fill="none" fill-rule="evenodd" stroke-linecap="round" stroke-linejoin="round">
        <g id="Tareas_Entregas" transform="translate(-1113.000000, -326.000000)" stroke="#2D2D2D" stroke-width="0.8">
            <g id="Body2" transform="translate(434.000000, 90.000000)">
                <g id="Group" transform="translate(670.000000, 226.000000)">
                    <g id="Group-2">
                        <g id="edit" transform="translate(10.000000, 10.000000)">
                            <path d="M9.9,6.963 L9.9,9.9 C9.9,10.5075132 9.40751322,11 8.8,11 L1.1,11 C0.492486775,11 0,10.5075132 0,9.9 L0,2.2 C-1.22124533e-16,1.59248678 0.492486775,1.1 1.1,1.1 L4.037,1.1" id="Shape"></path>
                            <polygon id="Shape" points="8.8 0 11 2.2 5.5 7.7 3.3 7.7 3.3 5.5"></polygon>
                        </g>
                    </g>
                </g>
            </g>
        </g>
    </g>
</svg>