<?xml version="1.0" encoding="UTF-8"?>
<svg width="20px" height="16px" viewBox="0 0 20 16" version="1.1" xmlns="http://www.w3.org/2000/svg" xmlns:xlink="http://www.w3.org/1999/xlink">
    <!-- Generator: Sketch 44.1 (41455) - http://www.bohemiancoding.com/sketch -->
    <title>users</title>
    <desc>Created with Sketch.</desc>
    <defs></defs>
    <g id="Teacher" stroke="none" stroke-width="1" fill="none" fill-rule="evenodd" stroke-linecap="round" stroke-linejoin="round">
        <g id="Miembros" transform="translate(-636.000000, -265.000000)" stroke="#09A4C9">
            <g id="Body2" transform="translate(434.000000, 90.000000)">
                <g id="Header" transform="translate(0.000000, 158.000000)">
                    <g id="Miembros" transform="translate(170.000000, 0.000000)">
                        <g id="users" transform="translate(33.000000, 18.000000)">
                            <path d="M13.3333333,15 L13.3333333,13.3333333 C13.3333333,11.4923842 11.8409492,10 10,10 L3.33333333,10 C1.49238417,10 1.85037171e-16,11.4923842 0,13.3333333 L0,15" id="Shape"></path>
                            <circle id="Oval" cx="6.66666667" cy="3.33333333" r="3.33333333"></circle>
                            <path d="M18.3333333,15 L18.3333333,13.3333333 C18.3322002,11.8142648 17.3041656,10.4881002 15.8333333,10.1083333" id="Shape"></path>
                            <path d="M12.5,0.108333333 C13.974929,0.485974823 15.006536,1.81499262 15.006536,3.3375 C15.006536,4.86000738 13.974929,6.18902518 12.5,6.56666667" id="Shape"></path>
                        </g>
                    </g>
                </g>
            </g>
        </g>
    </g>
</svg>