<?xml version="1.0" encoding="UTF-8"?>
<svg width="14px" height="12px" viewBox="0 0 14 12" version="1.1" xmlns="http://www.w3.org/2000/svg" xmlns:xlink="http://www.w3.org/1999/xlink">
    <!-- Generator: Sketch 44.1 (41455) - http://www.bohemiancoding.com/sketch -->
    <title>inbox</title>
    <desc>Created with Sketch.</desc>
    <defs></defs>
    <g id="Symbols" stroke="none" stroke-width="1" fill="none" fill-rule="evenodd" stroke-linecap="round" stroke-linejoin="round">
        <g id="Content/Views/Homework" transform="translate(-178.000000, -34.000000)" stroke="#2D2D2D" stroke-width="0.8">
            <g id="Group">
                <g id="Recibidos" transform="translate(179.000000, 32.000000)">
                    <g id="inbox" transform="translate(0.000000, 3.000000)">
                        <polyline id="Shape" points="12.5 5.625 8.75 5.625 7.5 7.5 5 7.5 3.75 5.625 0 5.625"></polyline>
                        <path d="M2.16875,0.74375 L0,5.625 L0,8.75 C0,9.44035594 0.559644063,10 1.25,10 L11.25,10 C11.9403559,10 12.5,9.44035594 12.5,8.75 L12.5,5.625 L10.33125,0.74375 C10.1308317,0.291290862 9.68236025,-0.000338094477 9.1875,2.11758237e-22 L3.3125,2.11758237e-22 C2.81763975,-0.000338094477 2.36916833,0.291290862 2.16875,0.74375 Z" id="Shape"></path>
                    </g>
                </g>
            </g>
        </g>
    </g>
</svg>