<?xml version="1.0" encoding="UTF-8"?>
<svg width="12px" height="11px" viewBox="0 0 12 11" version="1.1" xmlns="http://www.w3.org/2000/svg" xmlns:xlink="http://www.w3.org/1999/xlink">
    <!-- Generator: Sketch 44.1 (41455) - http://www.bohemiancoding.com/sketch -->
    <title>Triangle 2</title>
    <desc>Created with Sketch.</desc>
    <defs></defs>
    <g id="Page-1" stroke="none" stroke-width="1" fill="none" fill-rule="evenodd">
        <g id="4_Inicio" transform="translate(-1399.000000, -29.000000)" fill="#2D2D2D">
            <g id="topBar">
                <g id="User" transform="translate(1344.000000, 12.000000)">
                    <path d="M60.46047,27.6288756 L55.7335671,18.2041584 L55.7335671,18.2041584 C55.6097678,17.9573217 55.7095094,17.6568619 55.9563461,17.5330626 C56.0259172,17.4981697 56.1026735,17.48 56.1805045,17.48 L65.6343103,17.48 L65.6343103,17.48 C65.9104527,17.48 66.1343103,17.7038576 66.1343103,17.98 C66.1343103,18.057831 66.1161406,18.1345873 66.0812477,18.2041584 L61.3543448,27.6288756 L61.3543448,27.6288756 C61.2305455,27.8757123 60.9300857,27.9754539 60.683249,27.8516546 C60.5869223,27.8033426 60.508782,27.7252023 60.46047,27.6288756 Z" id="Triangle-2"></path>
                </g>
            </g>
        </g>
    </g>
</svg>